%YAML 1.1
%TAG !u! tag:unity3d.com,2011:
--- !u!74 &7400000
AnimationClip:
  m_ObjectHideFlags: 0
  m_PrefabParentObject: {fileID: 0}
  m_PrefabInternal: {fileID: 0}
  m_Name: Ruby
  serializedVersion: 6
  m_Legacy: 1
  m_Compressed: 0
  m_UseHighQualityCurve: 1
  m_RotationCurves:
  - curve:
      serializedVersion: 2
      m_Curve:
      - time: 0
        value: {x: -0, y: -0, z: -0, w: -1}
        inSlope: {x: 0, y: -1.5450919, z: 0, w: 0.24471968}
        outSlope: {x: 0, y: -1.5450919, z: 0, w: 0.24471968}
        tangentMode: 0
      - time: 0.2
        value: {x: -0, y: -0.30901837, z: -0, w: -0.95105606}
        inSlope: {x: 0, y: -1.4694717, z: 0, w: 0.47746375}
        outSlope: {x: 0, y: -1.4694717, z: 0, w: 0.47746375}
        tangentMode: 0
      - time: 0.4
        value: {x: -0, y: -0.5877887, z: -0, w: -0.8090145}
        inSlope: {x: 0, y: -1.2500061, z: 0, w: 0.90819013}
        outSlope: {x: 0, y: -1.2500061, z: 0, w: 0.90819013}
        tangentMode: 0
      - time: 0.6
        value: {x: -0, y: -0.8090208, z: -0, w: -0.58778}
        inSlope: {x: 0, y: -0.9081739, z: 0, w: 1.2500074}
        outSlope: {x: 0, y: -0.9081739, z: 0, w: 1.2500074}
        tangentMode: 0
      - time: 0.8
        value: {x: -0, y: -0.95105827, z: -0, w: -0.30901152}
        inSlope: {x: 0, y: -0.477448, z: 0, w: 1.4694505}
        outSlope: {x: 0, y: -0.477448, z: 0, w: 1.4694505}
        tangentMode: 0
      - time: 1
        value: {x: -0, y: -1, z: -0, w: 0.00000016292068}
        inSlope: {x: 0, y: -0.0000048056245, z: 0, w: 1.5450432}
        outSlope: {x: 0, y: -0.0000048056245, z: 0, w: 1.5450432}
        tangentMode: 0
      - time: 1.2
        value: {x: -0, y: -0.9510602, z: -0, w: 0.30900583}
        inSlope: {x: 0, y: 0.47741565, z: 0, w: 1.4694048}
        outSlope: {x: 0, y: 0.47741565, z: 0, w: 1.4694048}
        tangentMode: 0
      - time: 1.4000001
        value: {x: -0, y: -0.8090337, z: -0, w: 0.58776224}
        inSlope: {x: 0, y: 0.90809023, z: 0, w: 1.2499573}
        outSlope: {x: 0, y: 0.90809023, z: 0, w: 1.2499573}
        tangentMode: 0
      - time: 1.6000001
        value: {x: -0, y: -0.587824, z: -0, w: 0.80898887}
        inSlope: {x: 0, y: 1.2498791, z: 0, w: 0.90818274}
        outSlope: {x: 0, y: 1.2498791, z: 0, w: 0.90818274}
        tangentMode: 0
      - time: 1.8000002
        value: {x: -0, y: -0.30908188, z: -0, w: 0.95103544}
        inSlope: {x: 0, y: 1.469342, z: 0, w: 0.47752786}
        outSlope: {x: 0, y: 1.469342, z: 0, w: 0.47752786}
        tangentMode: 0
      - time: 2
        value: {x: -0, y: -0.0000874122, z: -0, w: 1}
        inSlope: {x: 0, y: 1.5449739, z: 0, w: 0.24482304}
        outSlope: {x: 0, y: 1.5449739, z: 0, w: 0.24482304}
        tangentMode: 0
      m_PreInfinity: 2
      m_PostInfinity: 2
      m_RotationOrder: 4
    path: Model
  m_CompressedRotationCurves: []
  m_EulerCurves: []
  m_PositionCurves: []
  m_ScaleCurves: []
  m_FloatCurves: []
  m_PPtrCurves: []
  m_SampleRate: 5
  m_WrapMode: 2
  m_Bounds:
    m_Center: {x: 0, y: 0, z: 0}
    m_Extent: {x: 0, y: 0, z: 0}
  m_ClipBindingConstant:
    genericBindings: []
    pptrCurveMapping: []
  m_AnimationClipSettings:
    serializedVersion: 2
    m_AdditiveReferencePoseClip: {fileID: 0}
    m_AdditiveReferencePoseTime: 0
    m_StartTime: 0
    m_StopTime: 2
    m_OrientationOffsetY: 0
    m_Level: 0
    m_CycleOffset: 0
    m_HasAdditiveReferencePose: 0
    m_LoopTime: 1
    m_LoopBlend: 0
    m_LoopBlendOrientation: 0
    m_LoopBlendPositionY: 0
    m_LoopBlendPositionXZ: 0
    m_KeepOriginalOrientation: 0
    m_KeepOriginalPositionY: 1
    m_KeepOriginalPositionXZ: 0
    m_HeightFromFeet: 0
    m_Mirror: 0
  m_EditorCurves:
  - curve:
      serializedVersion: 2
      m_Curve:
      - time: 0
        value: -0
        inSlope: 0
        outSlope: 0
        tangentMode: 0
      - time: 0.2
        value: -0
        inSlope: 0
        outSlope: 0
        tangentMode: 0
      - time: 0.4
        value: -0
        inSlope: 0
        outSlope: 0
        tangentMode: 0
      - time: 0.6
        value: -0
        inSlope: 0
        outSlope: 0
        tangentMode: 0
      - time: 0.8
        value: -0
        inSlope: 0
        outSlope: 0
        tangentMode: 0
      - time: 1
        value: -0
        inSlope: 0
        outSlope: 0
        tangentMode: 0
      - time: 1.2
        value: -0
        inSlope: 0
        outSlope: 0
        tangentMode: 0
      - time: 1.4000001
        value: -0
        inSlope: 0
        outSlope: 0
        tangentMode: 0
      - time: 1.6000001
        value: -0
        inSlope: 0
        outSlope: 0
        tangentMode: 0
      - time: 1.8000002
        value: -0
        inSlope: 0
        outSlope: 0
        tangentMode: 0
      - time: 2
        value: -0
        inSlope: 0
        outSlope: 0
        tangentMode: 0
      m_PreInfinity: 2
      m_PostInfinity: 2
      m_RotationOrder: 4
    attribute: m_LocalRotation.x
    path: Model
    classID: 4
    script: {fileID: 0}
  - curve:
      serializedVersion: 2
      m_Curve:
      - time: 0
        value: -0
        inSlope: -1.5450919
        outSlope: -1.5450919
        tangentMode: 0
      - time: 0.2
        value: -0.30901837
        inSlope: -1.4694717
        outSlope: -1.4694717
        tangentMode: 0
      - time: 0.4
        value: -0.5877887
        inSlope: -1.2500061
        outSlope: -1.2500061
        tangentMode: 0
      - time: 0.6
        value: -0.8090208
        inSlope: -0.9081739
        outSlope: -0.9081739
        tangentMode: 0
      - time: 0.8
        value: -0.95105827
        inSlope: -0.477448
        outSlope: -0.477448
        tangentMode: 0
      - time: 1
        value: -1
        inSlope: -0.0000048056245
        outSlope: -0.0000048056245
        tangentMode: 0
      - time: 1.2
        value: -0.9510602
        inSlope: 0.47741565
        outSlope: 0.47741565
        tangentMode: 0
      - time: 1.4000001
        value: -0.8090337
        inSlope: 0.90809023
        outSlope: 0.90809023
        tangentMode: 0
      - time: 1.6000001
        value: -0.587824
        inSlope: 1.2498791
        outSlope: 1.2498791
        tangentMode: 0
      - time: 1.8000002
        value: -0.30908188
        inSlope: 1.469342
        outSlope: 1.469342
        tangentMode: 0
      - time: 2
        value: -0.0000874122
        inSlope: 1.5449739
        outSlope: 1.5449739
        tangentMode: 0
      m_PreInfinity: 2
      m_PostInfinity: 2
      m_RotationOrder: 4
    attribute: m_LocalRotation.y
    path: Model
    classID: 4
    script: {fileID: 0}
  - curve:
      serializedVersion: 2
      m_Curve:
      - time: 0
        value: -0
        inSlope: 0
        outSlope: 0
        tangentMode: 0
      - time: 0.2
        value: -0
        inSlope: 0
        outSlope: 0
        tangentMode: 0
      - time: 0.4
        value: -0
        inSlope: 0
        outSlope: 0
        tangentMode: 0
      - time: 0.6
        value: -0
        inSlope: 0
        outSlope: 0
        tangentMode: 0
      - time: 0.8
        value: -0
        inSlope: 0
        outSlope: 0
        tangentMode: 0
      - time: 1
        value: -0
        inSlope: 0
        outSlope: 0
        tangentMode: 0
      - time: 1.2
        value: -0
        inSlope: 0
        outSlope: 0
        tangentMode: 0
      - time: 1.4000001
        value: -0
        inSlope: 0
        outSlope: 0
        tangentMode: 0
      - time: 1.6000001
        value: -0
        inSlope: 0
        outSlope: 0
        tangentMode: 0
      - time: 1.8000002
        value: -0
        inSlope: 0
        outSlope: 0
        tangentMode: 0
      - time: 2
        value: -0
        inSlope: 0
        outSlope: 0
        tangentMode: 0
      m_PreInfinity: 2
      m_PostInfinity: 2
      m_RotationOrder: 4
    attribute: m_LocalRotation.z
    path: Model
    classID: 4
    script: {fileID: 0}
  - curve:
      serializedVersion: 2
      m_Curve:
      - time: 0
        value: -1
        inSlope: 0.24471968
        outSlope: 0.24471968
        tangentMode: 0
      - time: 0.2
        value: -0.95105606
        inSlope: 0.47746375
        outSlope: 0.47746375
        tangentMode: 0
      - time: 0.4
        value: -0.8090145
        inSlope: 0.90819013
        outSlope: 0.90819013
        tangentMode: 0
      - time: 0.6
        value: -0.58778
        inSlope: 1.2500074
        outSlope: 1.2500074
        tangentMode: 0
      - time: 0.8
        value: -0.30901152
        inSlope: 1.4694505
        outSlope: 1.4694505
        tangentMode: 0
      - time: 1
        value: 0.00000016292068
        inSlope: 1.5450432
        outSlope: 1.5450432
        tangentMode: 0
      - time: 1.2
        value: 0.30900583
        inSlope: 1.4694048
        outSlope: 1.4694048
        tangentMode: 0
      - time: 1.4000001
        value: 0.58776224
        inSlope: 1.2499573
        outSlope: 1.2499573
        tangentMode: 0
      - time: 1.6000001
        value: 0.80898887
        inSlope: 0.90818274
        outSlope: 0.90818274
        tangentMode: 0
      - time: 1.8000002
        value: 0.95103544
        inSlope: 0.47752786
        outSlope: 0.47752786
        tangentMode: 0
      - time: 2
        value: 1
        inSlope: 0.24482304
        outSlope: 0.24482304
        tangentMode: 0
      m_PreInfinity: 2
      m_PostInfinity: 2
      m_RotationOrder: 4
    attribute: m_LocalRotation.w
    path: Model
    classID: 4
    script: {fileID: 0}
  m_EulerEditorCurves:
  - curve:
      serializedVersion: 2
      m_Curve:
      - time: 0
        value: -0
        inSlope: 0
        outSlope: 0
        tangentMode: 10
      - time: 1
        value: -0
        inSlope: 0
        outSlope: 0
        tangentMode: 10
      - time: 2
        value: -0
        inSlope: 0
        outSlope: 0
        tangentMode: 10
      m_PreInfinity: 2
      m_PostInfinity: 2
      m_RotationOrder: 4
    attribute: localEulerAnglesBaked.x
    path: Model
    classID: 4
    script: {fileID: 0}
  - curve:
      serializedVersion: 2
      m_Curve:
      - time: 0
        value: 0
        inSlope: 180.00002
        outSlope: 180.00002
        tangentMode: 10
      - time: 1
        value: 180.00002
        inSlope: 179.995
        outSlope: 179.995
        tangentMode: 10
      - time: 2
        value: 359.99
        inSlope: 179.98997
        outSlope: 179.98997
        tangentMode: 10
      m_PreInfinity: 2
      m_PostInfinity: 2
      m_RotationOrder: 4
    attribute: localEulerAnglesBaked.y
    path: Model
    classID: 4
    script: {fileID: 0}
  - curve:
      serializedVersion: 2
      m_Curve:
      - time: 0
        value: 0
        inSlope: 0
        outSlope: 0
        tangentMode: 10
      - time: 1
        value: 0
        inSlope: 0
        outSlope: 0
        tangentMode: 10
      - time: 2
        value: 0
        inSlope: 0
        outSlope: 0
        tangentMode: 10
      m_PreInfinity: 2
      m_PostInfinity: 2
      m_RotationOrder: 4
    attribute: localEulerAnglesBaked.z
    path: Model
    classID: 4
    script: {fileID: 0}
  m_HasGenericRootTransform: 0
  m_HasMotionFloatCurves: 0
  m_GenerateMotionCurves: 0
  m_Events: []
